%YAML 1.1
%TAG !u! tag:unity3d.com,2011:
--- !u!74 &7400000
AnimationClip:
  m_ObjectHideFlags: 0
  m_CorrespondingSourceObject: {fileID: 0}
  m_PrefabInstance: {fileID: 0}
  m_PrefabAsset: {fileID: 0}
  m_Name: Walking_Golem
  serializedVersion: 6
  m_Legacy: 0
  m_Compressed: 0
  m_UseHighQualityCurve: 1
  m_RotationCurves: []
  m_CompressedRotationCurves: []
  m_EulerCurves: []
  m_PositionCurves: []
  m_ScaleCurves: []
  m_FloatCurves: []
  m_PPtrCurves:
  - curve:
    - time: 0
      value: {fileID: 21300000, guid: 691f9bb86368d4d64aa16054030e27c7, type: 3}
    - time: 0.083333336
      value: {fileID: 21300000, guid: be0e35228fdd343179e66c5da3ee5d7e, type: 3}
    - time: 0.16666667
      value: {fileID: 21300000, guid: 21f5cd855e5ba44529bdbe47ff90bfb6, type: 3}
    - time: 0.25
      value: {fileID: 21300000, guid: 7f767b10d80714afca1af18ed1128fc7, type: 3}
    - time: 0.33333334
      value: {fileID: 21300000, guid: 3d55615b63fe84ca9b42bde9be986f44, type: 3}
    - time: 0.41666666
      value: {fileID: 21300000, guid: 1415db6bc54a24133b07254329aa4e02, type: 3}
    - time: 0.5
      value: {fileID: 21300000, guid: d11e80d3ab0114c5fa03e000a3b13ce5, type: 3}
    - time: 0.5833333
      value: {fileID: 21300000, guid: 789bb663f762c49b388dee37913fccc1, type: 3}
    - time: 0.6666667
      value: {fileID: 21300000, guid: f583279d5de734008abce448cb0a5719, type: 3}
    - time: 0.75
      value: {fileID: 21300000, guid: 0808da75167834b17a1c62faa6271c02, type: 3}
    - time: 0.8333333
      value: {fileID: 21300000, guid: 20ffeea3e1536489eba78b06f33f7e92, type: 3}
    - time: 0.9166667
      value: {fileID: 21300000, guid: c0f9d10dd189b4f07bcfdccc140e9264, type: 3}
    - time: 1
      value: {fileID: 21300000, guid: 6a22a8fe3114a4ff99b66d50c8256948, type: 3}
    - time: 1.0833334
      value: {fileID: 21300000, guid: b91dbad63dc8b4295abd92152046aabd, type: 3}
    - time: 1.1666666
      value: {fileID: 21300000, guid: 06321daddba004b7a8f51e991b69a87d, type: 3}
    - time: 1.25
      value: {fileID: 21300000, guid: 7ef242497fa1e41808a5e6382ce67841, type: 3}
    - time: 1.3333334
      value: {fileID: 21300000, guid: 6c25498b1b9204a7898d2ec5be9d2a68, type: 3}
    - time: 1.4166666
      value: {fileID: 21300000, guid: 01ef6fd2129cf4a25812c040f01246fd, type: 3}
    attribute: m_Sprite
    path: 
    classID: 212
    script: {fileID: 0}
  m_SampleRate: 12
  m_WrapMode: 0
  m_Bounds:
    m_Center: {x: 0, y: 0, z: 0}
    m_Extent: {x: 0, y: 0, z: 0}
  m_ClipBindingConstant:
    genericBindings:
    - serializedVersion: 2
      path: 0
      attribute: 0
      script: {fileID: 0}
      typeID: 212
      customType: 23
      isPPtrCurve: 1
    pptrCurveMapping:
    - {fileID: 21300000, guid: 691f9bb86368d4d64aa16054030e27c7, type: 3}
    - {fileID: 21300000, guid: be0e35228fdd343179e66c5da3ee5d7e, type: 3}
    - {fileID: 21300000, guid: 21f5cd855e5ba44529bdbe47ff90bfb6, type: 3}
    - {fileID: 21300000, guid: 7f767b10d80714afca1af18ed1128fc7, type: 3}
    - {fileID: 21300000, guid: 3d55615b63fe84ca9b42bde9be986f44, type: 3}
    - {fileID: 21300000, guid: 1415db6bc54a24133b07254329aa4e02, type: 3}
    - {fileID: 21300000, guid: d11e80d3ab0114c5fa03e000a3b13ce5, type: 3}
    - {fileID: 21300000, guid: 789bb663f762c49b388dee37913fccc1, type: 3}
    - {fileID: 21300000, guid: f583279d5de734008abce448cb0a5719, type: 3}
    - {fileID: 21300000, guid: 0808da75167834b17a1c62faa6271c02, type: 3}
    - {fileID: 21300000, guid: 20ffeea3e1536489eba78b06f33f7e92, type: 3}
    - {fileID: 21300000, guid: c0f9d10dd189b4f07bcfdccc140e9264, type: 3}
    - {fileID: 21300000, guid: 6a22a8fe3114a4ff99b66d50c8256948, type: 3}
    - {fileID: 21300000, guid: b91dbad63dc8b4295abd92152046aabd, type: 3}
    - {fileID: 21300000, guid: 06321daddba004b7a8f51e991b69a87d, type: 3}
    - {fileID: 21300000, guid: 7ef242497fa1e41808a5e6382ce67841, type: 3}
    - {fileID: 21300000, guid: 6c25498b1b9204a7898d2ec5be9d2a68, type: 3}
    - {fileID: 21300000, guid: 01ef6fd2129cf4a25812c040f01246fd, type: 3}
  m_AnimationClipSettings:
    serializedVersion: 2
    m_AdditiveReferencePoseClip: {fileID: 0}
    m_AdditiveReferencePoseTime: 0
    m_StartTime: 0
    m_StopTime: 1.5
    m_OrientationOffsetY: 0
    m_Level: 0
    m_CycleOffset: 0
    m_HasAdditiveReferencePose: 0
    m_LoopTime: 1
    m_LoopBlend: 0
    m_LoopBlendOrientation: 0
    m_LoopBlendPositionY: 0
    m_LoopBlendPositionXZ: 0
    m_KeepOriginalOrientation: 0
    m_KeepOriginalPositionY: 1
    m_KeepOriginalPositionXZ: 0
    m_HeightFromFeet: 0
    m_Mirror: 0
  m_EditorCurves: []
  m_EulerEditorCurves: []
  m_HasGenericRootTransform: 0
  m_HasMotionFloatCurves: 0
  m_Events: []
